<?xml version="1.0" encoding="UTF-8"?>
<session version="1.0">
<refactoring comment="Rename resource &apos;Overloading And Assignment Operator/STL Complex Data Types.cpp&apos; to &apos;Overloading.cpp&apos;" description="Rename resource &apos;STL Complex Data Types.cpp&apos;" flags="7" id="org.eclipse.ltk.core.refactoring.rename.resource" input="STL Complex Data Types.cpp" name="Overloading.cpp" stamp="1590242292082" updateReferences="true"/>
</session>