<?xml version="1.0" encoding="UTF-8"?>
<session version="1.0">
<refactoring comment="Rename resource &apos;TestProject2/src/Initialization List.cpp&apos; to &apos;Initialization Constructor List.cpp&apos;" description="Rename resource &apos;Initialization List.cpp&apos;" flags="7" id="org.eclipse.ltk.core.refactoring.rename.resource" input="src/Initialization List.cpp" name="Initialization Constructor List.cpp" stamp="1590421710868" updateReferences="true"/>
</session>