<?xml version="1.0" encoding="UTF-8"?>
<session version="1.0">
<refactoring comment="Rename resource &apos;Perfect Forwarding/Object Initialization.cpp&apos; to &apos;Forwarding.cpp&apos;" description="Rename resource &apos;Object Initialization.cpp&apos;" flags="7" id="org.eclipse.ltk.core.refactoring.rename.resource" input="Object Initialization.cpp" name="Forwarding.cpp" stamp="1590514150143" updateReferences="true"/>
</session>