10:12:52 **** Build of project InitializationInC98@InitializationInC98 ****
/usr/bin/make -j4 all 
make: *** No rule to make target `all'.  Stop.
"/usr/bin/make -j4 all" terminated with exit code 2. Build might be incomplete.

10:12:53 Build Failed. 1 errors, 0 warnings. (took 73ms)

